// Jest Snapshot v1, https://goo.gl/fbAQLP

exports[`Modal matches the snapshot 1`] = `
<div
  className="modal"
>
  <div
    className="modal-content"
    style={
      Object {
        "backgroundColor": "#FFFFFF",
      }
    }
  >
    <div
      className="close"
    >
      <span
        className="close-icon"
        onClick={[Function]}
      >
        ×
      </span>
    </div>
    <div
      className="form-align"
    >
      <label
        className="form-label"
      >
        Reminder
        <input
          className="form-input"
          maxLength="30"
          name="reminder"
          onChange={[Function]}
          placeholder="Reminder"
          test-id="reminder"
          type="text"
          value=""
        />
      </label>
      <label
        className="form-label"
      >
        Location
        <input
          className="form-input"
          name="location"
          onChange={[Function]}
          placeholder="Select a location"
          type="text"
          value=""
        />
      </label>
      <label
        className="form-label"
      >
        Date
        <input
          className="form-input"
          name="date"
          onChange={[Function]}
          placeholder="Date"
          type="date"
          value=""
        />
      </label>
      <label
        className="form-label"
      >
        Time
        <input
          className="form-input"
          name="time"
          onChange={[Function]}
          placeholder="Time"
          type="time"
          value=""
        />
      </label>
      <div
        className="center"
      >
        <ColorPicker
          onChange={[Function]}
        />
      </div>
      <div
        className="center"
      >
        <Button
          content="Remind-me"
          onClick={[Function]}
        />
      </div>
    </div>
  </div>
</div>
`;
